module gitlab.com/tokend/createAccount

go 1.16

require (
	github.com/Masterminds/squirrel v1.4.0
	github.com/alecthomas/kingpin v2.2.6+incompatible
	github.com/certifi/gocertifi v0.0.0-20200922220541-2c3bb06c6054 // indirect
	github.com/fatih/structs v1.1.0
	github.com/getsentry/raven-go v0.2.0 // indirect
	github.com/go-chi/chi v4.1.2+incompatible
	github.com/go-ozzo/ozzo-validation v3.6.0+incompatible
	github.com/gobuffalo/packr/v2 v2.8.1
	github.com/google/jsonapi v0.0.0-20210306203318-b10ff4bf785b // indirect
	github.com/nullstyle/go-xdr v0.0.0-20180726165426-f4c839f75077 // indirect
	github.com/rubenv/sql-migrate v0.0.0-20210215143335-f84234893558
	gitlab.com/distributed_lab/ape v1.5.0
	gitlab.com/distributed_lab/kit v1.8.5
	gitlab.com/distributed_lab/logan v3.8.0+incompatible
	gitlab.com/distributed_lab/lorem v0.2.0 // indirect
	gitlab.com/tokend/go v3.14.0+incompatible
	gitlab.com/tokend/keypair v0.0.0-20190412110653-b9d7e0c8b312
	gitlab.com/tokend/regources v4.9.1+incompatible
)
